sg\spring\simpleweb\config\RootConfig.class
sg\spring\simpleweb\web\OneController.class
sg\spring\simpleweb\web\model\RegisterForm.class
sg\spring\simpleweb\config\WebConfig.class
sg\spring\simpleweb\config\SimpleWebAppInit.class
sg\spring\simpleweb\web\HomeController.class
